{
    "font awesome 6 brands": {
        "normal": "font_awesome_6_brands_normal_bc8518f7c6662215315a70391938c4d3"
    },
    "font awesome 6 free": {
        "normal": "\/opt\/lampp\/htdocs\/cashier\/storage\/fonts\/font_awesome_6_free_normal_d9435ad7ce4df537429f0606dde66581",
        "900": "font_awesome_6_free_900_9810b9aabbb757fed6ada4f8b7ae680d"
    },
    "font awesome 5 brands": {
        "normal": "font_awesome_5_brands_normal_bc8518f7c6662215315a70391938c4d3"
    },
    "font awesome 5 free": {
        "900": "\/opt\/lampp\/htdocs\/cashier\/storage\/fonts\/font_awesome_5_free_900_9810b9aabbb757fed6ada4f8b7ae680d",
        "normal": "font_awesome_5_free_normal_d9435ad7ce4df537429f0606dde66581"
    },
    "fontawesome": {
        "normal": "fontawesome_normal_4a6224ef3e16dc3138e6ecfcd841f33c"
    }
}